…
```r
posterior_summary(brms_c15_model_divorce) %>% 
  round(digits = 2) %>% 
  as.data.frame() %>% 
  rownames_to_column(var = "param") %>% 
  as_tibble()
```

```
#> # A tibble: 55 × 5
#>    param            Estimate Est.Error  Q2.5 Q97.5
#>    <chr>               <dbl>     <dbl> <dbl> <dbl>
#>  1 b_Intercept         -0.06      0.09 -0.24  0.13
#>  2 b_median_age_std    -0.61      0.16 -0.92 -0.29
#>  3 b_marriage_std       0.06      0.16 -0.26  0.39
#>  4 sigma                0.58      0.11  0.39  0.81
#>  5 Yl[1]                1.16      0.37  0.46  1.9 
#>  6 Yl[2]                0.69      0.56 -0.41  1.78
#>  7 Yl[3]                0.42      0.35 -0.25  1.13
#>  8 Yl[4]                1.41      0.46  0.52  2.32
#>  9 Yl[5]               -0.9       0.13 -1.16 -0.65
#> 10 Yl[6]                0.66      0.41 -0.15  1.48
#> # … with 45 more rows
```
…
posterior_summary(brms_c15_model_divorce_error_out) %>%
 round(digits = 2) %>% 
  as.data.frame() %>% 
  rownames_to_column(var = "param") %>%
  as_tibble()
```

```
#> # A tibble: 107 × 5
#>    param                         Estimate Est.Error  Q2.5 Q97.5
#>    <chr>                            <dbl>     <dbl> <dbl> <dbl>
#>  1 b_Intercept                      -0.03      0.1  -0.22  0.16
#>  2 b_median_age_std                 -0.52      0.16 -0.82 -0.21
#>  3 bsp_memarriage_stdmarriage_sd     0.26      0.22 -0.17  0.69
#>  4 sigma                             0.55      0.11  0.35  0.79
#>  5 Yl[1]                             1.13      0.38  0.39  1.86
#>  6 Yl[2]                             0.72      0.54 -0.29  1.81
#>  7 Yl[3]                             0.43      0.33 -0.21  1.1 
#>  8 Yl[4]                             1.45      0.47  0.54  2.4 
#>  9 Yl[5]                            -0.9       0.13 -1.15 -0.65
#> 10 Yl[6]                             0.71      0.4  -0.05  1.53
#> # … with 97 more rows
```
…
<img src="rethinking_c15_files/figure-html/unnamed-chunk-95-1.svg" width="672" style="display: block; margin: auto;" />

####  Measurement Terrors


```r
data_sim
```

```
#> # A tibble: 500 × 4
#>        age marriage divorce  age_obs
#>      <dbl>    <dbl>   <dbl>    <dbl>
#>  1 -0.172     1.14   0.536  -0.231  
#>  2 -0.564    -1.09  -0.477  -1.24   
#>  3  0.252    -0.922 -0.326  -0.746  
#>  4  0.0798   -1.20  -0.696  -0.113  
#>  5  0.818    -2.20   1.99    0.160  
#>  6 -0.164     1.05   0.143   0.698  
#>  7  0.797     0.413  1.37   -1.88   
#>  8  0.435    -2.03  -1.03    1.51   
#>  9 -0.254    -0.484 -0.240  -0.00495
#> 10 -0.0502   -0.287 -0.0359 -0.800  
#> # … with 490 more rows
```
…
