8 Rethinking: Chapter 7 | Statistical Explorations
…
Pointwise values:

waic(brms_c7_model_cars)$pointwise %>% 
  as_tibble()

#> # A tibble: 50 × 3
#>    elpd_waic p_waic  waic
#>        <dbl>  <dbl> <dbl>
#>  1     -3.65 0.0217  7.30
#>  2     -4.02 0.0949  8.05
#>  3     -3.68 0.0209  7.37
#>  4     -4.00 0.0597  7.99
#>  5     -3.59 0.0102  7.18
#>  6     -3.74 0.0210  7.48
#>  7     -3.60 0.0103  7.21
#>  8     -3.62 0.0110  7.23
#>  9     -3.98 0.0351  7.96
#> 10     -3.77 0.0171  7.54
#> # … with 40 more rows
…
