3 Rethinking: Chapter 2 | Statistical Exploration
…
sequence_length <- 50
d %>% 
  expand(nesting(n_trials, toss, n_success), 
         p_water = seq(from = 0, to = 1, length.out = sequence_length)) %>% 
  group_by(p_water) %>% 
 # you can learn more about lagging here: https://www.rdocumentation.org/packages/stats/versions/3.5.1/topics/lag or here: https://dplyr.tidyverse.org/reference/lead-lag.html
  mutate(lagged_n_trials  = lag(n_trials, k = 1),
         lagged_n_success = lag(n_success, k = 1)) 

#> # A tibble: 450 x 6
#> # Groups:   p_water [50]
#>    n_trials toss  n_success p_water lagged_n_trials lagged_n_success
#>       <int> <chr>     <int>   <dbl>           <int>            <int>
#>  1        1 w             1  0                   NA               NA
#>  2        1 w             1  0.0204              NA               NA
#>  3        1 w             1  0.0408              NA               NA
#>  4        1 w             1  0.0612              NA               NA
#>  5        1 w             1  0.0816              NA               NA
#>  6        1 w             1  0.102               NA               NA
#>  7        1 w             1  0.122               NA               NA
#>  8        1 w             1  0.143               NA               NA
#>  9        1 w             1  0.163               NA               NA
#> 10        1 w             1  0.184               NA               NA
#> # … with 440 more rows
…
