14 Rethinking: Chapter 13 | Statistical Explorations
…
data("bangladesh")

data_bangaldesh <- bangladesh %>% 
  as_tibble() %>% 
  mutate(district_idx = as.integer(as.factor(district)))  %>% 
  rename(contraception = use.contraception) 

rm(bangladesh)

tibble(district_idx = sort(unique(data_bangaldesh$district))) %>% 
  mutate(check_increment = district_idx - lag(district_idx,default = 0)) %>% 
  arrange(-check_increment)

#> # A tibble: 60 × 2
#>    district_idx check_increment
#>           <int>           <dbl>
#>  1           55               2
#>  2            1               1
#>  3            2               1
#>  4            3               1
#>  5            4               1
#>  6            5               1
#>  7            6               1
#>  8            7               1
#>  9            8               1
#> 10            9               1
#> # … with 50 more rows
…
