9 Rethinking: Chapter 8 | Statistical Explorations
…
#> brms_c8_model_rugged_restricted      brms_c8_model_rugged_index 
#>                            0.00                            0.03 
#>      brms_c8_model_rugged_slope 
#>                            0.97

tibble(k = brms_c8_model_rugged_slope$criteria$loo$diagnostics$pareto_k,
       row = 1:170) %>% 
  arrange(desc(k))

#> # A tibble: 170 x 2
#>        k   row
#>    <dbl> <int>
#>  1 0.512   145
#>  2 0.494    93
#>  3 0.262    35
#>  4 0.240   133
#>  5 0.240    36
#>  6 0.195    27
#>  7 0.182   144
#>  8 0.149    67
#>  9 0.143    99
#> 10 0.139   107
#> # … with 160 more rows
…
